^Z:\_REPOSITORIES\REPOSITORIES\MOD3197 - OBJECT ORIENTED C++\QUICKTEST\CONSOLEAPPLICATION1\CONSOLEAPPLICATION1\SOURCE.CPP
Z:\_REPOSITORIES\REPOSITORIES\MOD3197 - OBJECT ORIENTED C++\QUICKTEST\CONSOLEAPPLICATION1\CONSOLEAPPLICATION1\DEBUG\VC140.PDB
Z:\_REPOSITORIES\REPOSITORIES\MOD3197 - OBJECT ORIENTED C++\QUICKTEST\CONSOLEAPPLICATION1\CONSOLEAPPLICATION1\DEBUG\VC140.IDB
Z:\_REPOSITORIES\REPOSITORIES\MOD3197 - OBJECT ORIENTED C++\QUICKTEST\CONSOLEAPPLICATION1\CONSOLEAPPLICATION1\DEBUG\SOURCE.OBJ
