^D:\UNIVERSITY\_REPOSITORIES\MOD3197-C++\PROJECTS\WEEK_1-CELSIUS_TO_FAHRENHEIT_CONVERTER\CTOF_CONVERTER\CTOF_CONVERTER\X64\DEBUG\CALCSUM.OBJ
/OUT:"D:\UNIVERSITY\_REPOSITORIES\MOD3197-C++\PROJECTS\WEEK_1-CELSIUS_TO_FAHRENHEIT_CONVERTER\CTOF_CONVERTER\X64\DEBUG\CTOF_CONVERTER.EXE" /INCREMENTAL /NOLOGO KERNEL32.LIB USER32.LIB GDI32.LIB WINSPOOL.LIB COMDLG32.LIB ADVAPI32.LIB SHELL32.LIB OLE32.LIB OLEAUT32.LIB UUID.LIB ODBC32.LIB ODBCCP32.LIB /MANIFEST /MANIFESTUAC:"level='asInvoker' uiAccess='false'" /manifest:embed /Debug /PDB:"D:\UNIVERSITY\_REPOSITORIES\MOD3197-C++\PROJECTS\WEEK_1-CELSIUS_TO_FAHRENHEIT_CONVERTER\CTOF_CONVERTER\X64\DEBUG\CTOF_CONVERTER.PDB" /SUBSYSTEM:CONSOLE /TLBID:1 /DYNAMICBASE /NXCOMPAT /IMPLIB:"D:\UNIVERSITY\_REPOSITORIES\MOD3197-C++\PROJECTS\WEEK_1-CELSIUS_TO_FAHRENHEIT_CONVERTER\CTOF_CONVERTER\X64\DEBUG\CTOF_CONVERTER.LIB" /MACHINE:X64 X64\DEBUG\CALCSUM.OBJ
^D:\UNIVERSITY\_REPOSITORIES\MOD3197-C++\PROJECTS\WEEK_1-CELSIUS_TO_FAHRENHEIT_CONVERTER (UPDATED)\CTOF_CONVERTER\CTOF_CONVERTER\X64\DEBUG\CALCSUM.OBJ
/OUT:"D:\UNIVERSITY\_REPOSITORIES\MOD3197-C++\PROJECTS\WEEK_1-CELSIUS_TO_FAHRENHEIT_CONVERTER (UPDATED)\CTOF_CONVERTER\X64\DEBUG\CTOF_CONVERTER.EXE" /INCREMENTAL /NOLOGO KERNEL32.LIB USER32.LIB GDI32.LIB WINSPOOL.LIB COMDLG32.LIB ADVAPI32.LIB SHELL32.LIB OLE32.LIB OLEAUT32.LIB UUID.LIB ODBC32.LIB ODBCCP32.LIB /MANIFEST /MANIFESTUAC:"level='asInvoker' uiAccess='false'" /manifest:embed /Debug /PDB:"D:\UNIVERSITY\_REPOSITORIES\MOD3197-C++\PROJECTS\WEEK_1-CELSIUS_TO_FAHRENHEIT_CONVERTER (UPDATED)\CTOF_CONVERTER\X64\DEBUG\CTOF_CONVERTER.PDB" /SUBSYSTEM:CONSOLE /TLBID:1 /DYNAMICBASE /NXCOMPAT /IMPLIB:"D:\UNIVERSITY\_REPOSITORIES\MOD3197-C++\PROJECTS\WEEK_1-CELSIUS_TO_FAHRENHEIT_CONVERTER (UPDATED)\CTOF_CONVERTER\X64\DEBUG\CTOF_CONVERTER.LIB" /MACHINE:X64 X64\DEBUG\CALCSUM.OBJ
^Z:\_REPOSITORIES\REPOSITORIES\MOD3197 - OBJECT ORIENTED C++\WEEK_1 - CELSIUS_TO_FAHRENHEIT_CONVERTER (UPDATED)\CTOF_CONVERTER\CTOF_CONVERTER\X64\DEBUG\CALCSUM.OBJ
/OUT:"Z:\_REPOSITORIES\REPOSITORIES\MOD3197 - OBJECT ORIENTED C++\WEEK_1 - CELSIUS_TO_FAHRENHEIT_CONVERTER (UPDATED)\CTOF_CONVERTER\X64\DEBUG\CTOF_CONVERTER.EXE" /INCREMENTAL /NOLOGO KERNEL32.LIB USER32.LIB GDI32.LIB WINSPOOL.LIB COMDLG32.LIB ADVAPI32.LIB SHELL32.LIB OLE32.LIB OLEAUT32.LIB UUID.LIB ODBC32.LIB ODBCCP32.LIB /MANIFEST /MANIFESTUAC:"level='asInvoker' uiAccess='false'" /manifest:embed /Debug /PDB:"Z:\_REPOSITORIES\REPOSITORIES\MOD3197 - OBJECT ORIENTED C++\WEEK_1 - CELSIUS_TO_FAHRENHEIT_CONVERTER (UPDATED)\CTOF_CONVERTER\X64\DEBUG\CTOF_CONVERTER.PDB" /SUBSYSTEM:CONSOLE /TLBID:1 /DYNAMICBASE /NXCOMPAT /IMPLIB:"Z:\_REPOSITORIES\REPOSITORIES\MOD3197 - OBJECT ORIENTED C++\WEEK_1 - CELSIUS_TO_FAHRENHEIT_CONVERTER (UPDATED)\CTOF_CONVERTER\X64\DEBUG\CTOF_CONVERTER.LIB" /MACHINE:X64 X64\DEBUG\CALCSUM.OBJ
