^Z:\_REPOSITORIES\REPOSITORIES\MOD3197 - OBJECT ORIENTED C++\75% - INFIX TO POSTFIX\INFIXTOPOSTFIX\INFIXTOPOSTFIX\DEBUG\IMPLEMENTATION.OBJ|Z:\_REPOSITORIES\REPOSITORIES\MOD3197 - OBJECT ORIENTED C++\75% - INFIX TO POSTFIX\INFIXTOPOSTFIX\INFIXTOPOSTFIX\DEBUG\MAIN.OBJ
Z:\_REPOSITORIES\REPOSITORIES\MOD3197 - OBJECT ORIENTED C++\75% - INFIX TO POSTFIX\INFIXTOPOSTFIX\DEBUG\INFIXTOPOSTFIX.ILK
Z:\_REPOSITORIES\REPOSITORIES\MOD3197 - OBJECT ORIENTED C++\75% - INFIX TO POSTFIX\INFIXTOPOSTFIX\DEBUG\INFIXTOPOSTFIX.EXE
Z:\_REPOSITORIES\REPOSITORIES\MOD3197 - OBJECT ORIENTED C++\75% - INFIX TO POSTFIX\INFIXTOPOSTFIX\DEBUG\INFIXTOPOSTFIX.PDB
^Z:\UNIVERSITY\COMPUTER GAMING TECHNOLOGY\YEAR 2\SEMESTER 2\MOD003197 - OBJECT ORIENTED C++ (06.05.16)\SOLUTION\INFIXTOPOSTFIX\INFIXTOPOSTFIX\DEBUG\LOGIC.OBJ|Z:\UNIVERSITY\COMPUTER GAMING TECHNOLOGY\YEAR 2\SEMESTER 2\MOD003197 - OBJECT ORIENTED C++ (06.05.16)\SOLUTION\INFIXTOPOSTFIX\INFIXTOPOSTFIX\DEBUG\MAIN.OBJ
Z:\UNIVERSITY\COMPUTER GAMING TECHNOLOGY\YEAR 2\SEMESTER 2\MOD003197 - OBJECT ORIENTED C++ (06.05.16)\SOLUTION\INFIXTOPOSTFIX\DEBUG\INFIXTOPOSTFIX.ILK
Z:\UNIVERSITY\COMPUTER GAMING TECHNOLOGY\YEAR 2\SEMESTER 2\MOD003197 - OBJECT ORIENTED C++ (06.05.16)\SOLUTION\INFIXTOPOSTFIX\DEBUG\INFIXTOPOSTFIX.EXE
Z:\UNIVERSITY\COMPUTER GAMING TECHNOLOGY\YEAR 2\SEMESTER 2\MOD003197 - OBJECT ORIENTED C++ (06.05.16)\SOLUTION\INFIXTOPOSTFIX\DEBUG\INFIXTOPOSTFIX.PDB
