^Z:\_REPOSITORIES\REPOSITORIES\MOD3197 - OBJECT ORIENTED C++\75% - INFIX TO POSTFIX\INFIXTOPOSTFIX\INFIXTOPOSTFIX\HEADER.CPP|Z:\_REPOSITORIES\REPOSITORIES\MOD3197 - OBJECT ORIENTED C++\75% - INFIX TO POSTFIX\INFIXTOPOSTFIX\INFIXTOPOSTFIX\MAIN.CPP
Z:\_REPOSITORIES\REPOSITORIES\MOD3197 - OBJECT ORIENTED C++\75% - INFIX TO POSTFIX\INFIXTOPOSTFIX\INFIXTOPOSTFIX\DEBUG\VC140.PDB
Z:\_REPOSITORIES\REPOSITORIES\MOD3197 - OBJECT ORIENTED C++\75% - INFIX TO POSTFIX\INFIXTOPOSTFIX\INFIXTOPOSTFIX\DEBUG\VC140.IDB
^Z:\_REPOSITORIES\REPOSITORIES\MOD3197 - OBJECT ORIENTED C++\75% - INFIX TO POSTFIX\INFIXTOPOSTFIX\INFIXTOPOSTFIX\HEADER.CPP
Z:\_REPOSITORIES\REPOSITORIES\MOD3197 - OBJECT ORIENTED C++\75% - INFIX TO POSTFIX\INFIXTOPOSTFIX\INFIXTOPOSTFIX\DEBUG\VC140.PDB
Z:\_REPOSITORIES\REPOSITORIES\MOD3197 - OBJECT ORIENTED C++\75% - INFIX TO POSTFIX\INFIXTOPOSTFIX\INFIXTOPOSTFIX\DEBUG\VC140.IDB
^Z:\_REPOSITORIES\REPOSITORIES\MOD3197 - OBJECT ORIENTED C++\75% - INFIX TO POSTFIX\INFIXTOPOSTFIX\INFIXTOPOSTFIX\MAIN.CPP
Z:\_REPOSITORIES\REPOSITORIES\MOD3197 - OBJECT ORIENTED C++\75% - INFIX TO POSTFIX\INFIXTOPOSTFIX\INFIXTOPOSTFIX\DEBUG\VC140.PDB
Z:\_REPOSITORIES\REPOSITORIES\MOD3197 - OBJECT ORIENTED C++\75% - INFIX TO POSTFIX\INFIXTOPOSTFIX\INFIXTOPOSTFIX\DEBUG\VC140.IDB
Z:\_REPOSITORIES\REPOSITORIES\MOD3197 - OBJECT ORIENTED C++\75% - INFIX TO POSTFIX\INFIXTOPOSTFIX\INFIXTOPOSTFIX\DEBUG\MAIN.OBJ
^Z:\_REPOSITORIES\REPOSITORIES\MOD3197 - OBJECT ORIENTED C++\75% - INFIX TO POSTFIX\INFIXTOPOSTFIX\INFIXTOPOSTFIX\IMPLEMENTATION.CPP|Z:\_REPOSITORIES\REPOSITORIES\MOD3197 - OBJECT ORIENTED C++\75% - INFIX TO POSTFIX\INFIXTOPOSTFIX\INFIXTOPOSTFIX\MAIN.CPP
Z:\_REPOSITORIES\REPOSITORIES\MOD3197 - OBJECT ORIENTED C++\75% - INFIX TO POSTFIX\INFIXTOPOSTFIX\INFIXTOPOSTFIX\DEBUG\VC140.PDB
Z:\_REPOSITORIES\REPOSITORIES\MOD3197 - OBJECT ORIENTED C++\75% - INFIX TO POSTFIX\INFIXTOPOSTFIX\INFIXTOPOSTFIX\DEBUG\VC140.IDB
Z:\_REPOSITORIES\REPOSITORIES\MOD3197 - OBJECT ORIENTED C++\75% - INFIX TO POSTFIX\INFIXTOPOSTFIX\INFIXTOPOSTFIX\DEBUG\IMPLEMENTATION.OBJ
^Z:\_REPOSITORIES\REPOSITORIES\MOD3197 - OBJECT ORIENTED C++\75% - INFIX TO POSTFIX\INFIXTOPOSTFIX\INFIXTOPOSTFIX\IMPLEMENTATION.CPP
Z:\_REPOSITORIES\REPOSITORIES\MOD3197 - OBJECT ORIENTED C++\75% - INFIX TO POSTFIX\INFIXTOPOSTFIX\INFIXTOPOSTFIX\DEBUG\VC140.PDB
Z:\_REPOSITORIES\REPOSITORIES\MOD3197 - OBJECT ORIENTED C++\75% - INFIX TO POSTFIX\INFIXTOPOSTFIX\INFIXTOPOSTFIX\DEBUG\VC140.IDB
