^Z:\_REPOSITORIES\REPOSITORIES\MOD3197 - OBJECT ORIENTED C++\75% - INFIX TO POSTFIX\INFIXTOPOSTFIX\INFIXTOPOSTFIX\DEBUG\MAIN.OBJ
/OUT:"Z:\_REPOSITORIES\REPOSITORIES\MOD3197 - OBJECT ORIENTED C++\75% - INFIX TO POSTFIX\INFIXTOPOSTFIX\DEBUG\INFIXTOPOSTFIX.EXE" /INCREMENTAL /NOLOGO KERNEL32.LIB USER32.LIB GDI32.LIB WINSPOOL.LIB COMDLG32.LIB ADVAPI32.LIB SHELL32.LIB OLE32.LIB OLEAUT32.LIB UUID.LIB ODBC32.LIB ODBCCP32.LIB /MANIFEST /MANIFESTUAC:"level='asInvoker' uiAccess='false'" /manifest:embed /Debug /PDB:"Z:\_REPOSITORIES\REPOSITORIES\MOD3197 - OBJECT ORIENTED C++\75% - INFIX TO POSTFIX\INFIXTOPOSTFIX\DEBUG\INFIXTOPOSTFIX.PDB" /SUBSYSTEM:CONSOLE /TLBID:1 /DYNAMICBASE /NXCOMPAT /IMPLIB:"Z:\_REPOSITORIES\REPOSITORIES\MOD3197 - OBJECT ORIENTED C++\75% - INFIX TO POSTFIX\INFIXTOPOSTFIX\DEBUG\INFIXTOPOSTFIX.LIB" /MACHINE:X86 DEBUG\MAIN.OBJ
^Z:\_REPOSITORIES\REPOSITORIES\MOD3197 - OBJECT ORIENTED C++\75% - INFIX TO POSTFIX\INFIXTOPOSTFIX\INFIXTOPOSTFIX\DEBUG\IMPLEMENTATION.OBJ|Z:\_REPOSITORIES\REPOSITORIES\MOD3197 - OBJECT ORIENTED C++\75% - INFIX TO POSTFIX\INFIXTOPOSTFIX\INFIXTOPOSTFIX\DEBUG\MAIN.OBJ
/OUT:"Z:\_REPOSITORIES\REPOSITORIES\MOD3197 - OBJECT ORIENTED C++\75% - INFIX TO POSTFIX\INFIXTOPOSTFIX\DEBUG\INFIXTOPOSTFIX.EXE" /INCREMENTAL /NOLOGO KERNEL32.LIB USER32.LIB GDI32.LIB WINSPOOL.LIB COMDLG32.LIB ADVAPI32.LIB SHELL32.LIB OLE32.LIB OLEAUT32.LIB UUID.LIB ODBC32.LIB ODBCCP32.LIB /MANIFEST /MANIFESTUAC:"level='asInvoker' uiAccess='false'" /manifest:embed /Debug /PDB:"Z:\_REPOSITORIES\REPOSITORIES\MOD3197 - OBJECT ORIENTED C++\75% - INFIX TO POSTFIX\INFIXTOPOSTFIX\DEBUG\INFIXTOPOSTFIX.PDB" /SUBSYSTEM:CONSOLE /TLBID:1 /DYNAMICBASE /NXCOMPAT /IMPLIB:"Z:\_REPOSITORIES\REPOSITORIES\MOD3197 - OBJECT ORIENTED C++\75% - INFIX TO POSTFIX\INFIXTOPOSTFIX\DEBUG\INFIXTOPOSTFIX.LIB" /MACHINE:X86 DEBUG\IMPLEMENTATION.OBJDEBUG\MAIN.OBJ
