^Z:\_REPOSITORIES\REPOSITORIES\MOD3197 - OBJECT ORIENTED C++\WEEK_5 - CONSTRUCTORS\CONSTRUCTORS\CONSTRUCTORS\BOOK.CPP
Z:\_REPOSITORIES\REPOSITORIES\MOD3197 - OBJECT ORIENTED C++\WEEK_5 - CONSTRUCTORS\CONSTRUCTORS\CONSTRUCTORS\X64\DEBUG\VC140.PDB
Z:\_REPOSITORIES\REPOSITORIES\MOD3197 - OBJECT ORIENTED C++\WEEK_5 - CONSTRUCTORS\CONSTRUCTORS\CONSTRUCTORS\X64\DEBUG\VC140.IDB
Z:\_REPOSITORIES\REPOSITORIES\MOD3197 - OBJECT ORIENTED C++\WEEK_5 - CONSTRUCTORS\CONSTRUCTORS\CONSTRUCTORS\X64\DEBUG\BOOK.OBJ
