^Z:\_REPOSITORIES\REPOSITORIES\MOD3197 - OBJECT ORIENTED C++\WEEK_2-PARAMETER_PASSING (PART 1)\PARAMETER_PASSING__1\PARAMETER_PASSING__1\PASSBYADDRESS.CPP
/c /ZI /nologo /W3 /WX- /sdl /Od /Oy- /D WIN32 /D _DEBUG /D _CONSOLE /D _UNICODE /D UNICODE /Gm /EHsc /RTC1 /MDd /GS /fp:precise /Zc:wchar_t /Zc:forScope /Zc:inline /Fo"DEBUG\\" /Fd"DEBUG\VC140.PDB" /Gd /TP /analyze- Z:\_REPOSITORIES\REPOSITORIES\MOD3197 - OBJECT ORIENTED C++\WEEK_2-PARAMETER_PASSING (PART 1)\PARAMETER_PASSING__1\PARAMETER_PASSING__1\PASSBYADDRESS.CPP
^Z:\_REPOSITORIES\REPOSITORIES\MOD3197 - OBJECT ORIENTED C++\WEEK_2-PARAMETER_PASSING (PART 1)\PARAMETER_PASSING__1\PARAMETER_PASSING__1\PASSBYREFERENCE.CPP
/c /ZI /nologo /W3 /WX- /sdl /Od /Oy- /D WIN32 /D _DEBUG /D _CONSOLE /D _UNICODE /D UNICODE /Gm /EHsc /RTC1 /MDd /GS /fp:precise /Zc:wchar_t /Zc:forScope /Zc:inline /Fo"DEBUG\\" /Fd"DEBUG\VC140.PDB" /Gd /TP /analyze- Z:\_REPOSITORIES\REPOSITORIES\MOD3197 - OBJECT ORIENTED C++\WEEK_2-PARAMETER_PASSING (PART 1)\PARAMETER_PASSING__1\PARAMETER_PASSING__1\PASSBYREFERENCE.CPP
^Z:\_REPOSITORIES\REPOSITORIES\MOD3197 - OBJECT ORIENTED C++\WEEK_2-PARAMETER_PASSING (PART 1)\PARAMETER_PASSING__1\PARAMETER_PASSING__1\PASSBYVALUE.CPP
/c /ZI /nologo /W3 /WX- /sdl /Od /Oy- /D WIN32 /D _DEBUG /D _CONSOLE /D _UNICODE /D UNICODE /Gm /EHsc /RTC1 /MDd /GS /fp:precise /Zc:wchar_t /Zc:forScope /Zc:inline /Fo"DEBUG\\" /Fd"DEBUG\VC140.PDB" /Gd /TP /analyze- Z:\_REPOSITORIES\REPOSITORIES\MOD3197 - OBJECT ORIENTED C++\WEEK_2-PARAMETER_PASSING (PART 1)\PARAMETER_PASSING__1\PARAMETER_PASSING__1\PASSBYVALUE.CPP
^Z:\_REPOSITORIES\REPOSITORIES\MOD3197 - OBJECT ORIENTED C++\WEEK_2-PARAMETER_PASSING (PART 1)\PARAMETER_PASSING__1 (PASSBYVALUE)\PARAMETER_PASSING__1\PASSBYVALUE.CPP
/c /ZI /nologo /W3 /WX- /sdl /Od /Oy- /D WIN32 /D _DEBUG /D _CONSOLE /D _UNICODE /D UNICODE /Gm /EHsc /RTC1 /MDd /GS /fp:precise /Zc:wchar_t /Zc:forScope /Zc:inline /Fo"DEBUG\\" /Fd"DEBUG\VC140.PDB" /Gd /TP /analyze- Z:\_REPOSITORIES\REPOSITORIES\MOD3197 - OBJECT ORIENTED C++\WEEK_2-PARAMETER_PASSING (PART 1)\PARAMETER_PASSING__1 (PASSBYVALUE)\PARAMETER_PASSING__1\PASSBYVALUE.CPP
