^D:\UNIVERSITY\_REPOSITORIES\MOD3197-C++\MOD3197 - OBJECT ORIENTED C++\WEEK 6 - C++ ARRAYS_NEW\STUDENT_ARRAY\STUDENT_ARRAY\DEBUG\ARRAY.OBJ
/OUT:"D:\UNIVERSITY\_REPOSITORIES\MOD3197-C++\MOD3197 - OBJECT ORIENTED C++\WEEK 6 - C++ ARRAYS_NEW\STUDENT_ARRAY\DEBUG\STUDENT_ARRAY.EXE" /INCREMENTAL /NOLOGO KERNEL32.LIB USER32.LIB GDI32.LIB WINSPOOL.LIB COMDLG32.LIB ADVAPI32.LIB SHELL32.LIB OLE32.LIB OLEAUT32.LIB UUID.LIB ODBC32.LIB ODBCCP32.LIB /MANIFEST /MANIFESTUAC:"level='asInvoker' uiAccess='false'" /manifest:embed /Debug /PDB:"D:\UNIVERSITY\_REPOSITORIES\MOD3197-C++\MOD3197 - OBJECT ORIENTED C++\WEEK 6 - C++ ARRAYS_NEW\STUDENT_ARRAY\DEBUG\STUDENT_ARRAY.PDB" /SUBSYSTEM:CONSOLE /TLBID:1 /DYNAMICBASE /NXCOMPAT /IMPLIB:"D:\UNIVERSITY\_REPOSITORIES\MOD3197-C++\MOD3197 - OBJECT ORIENTED C++\WEEK 6 - C++ ARRAYS_NEW\STUDENT_ARRAY\DEBUG\STUDENT_ARRAY.LIB" /MACHINE:X86 DEBUG\ARRAY.OBJ
^D:\UNIVERSITY\_REPOSITORIES\MOD3197-C++\MOD3197 - OBJECT ORIENTED C++\WEEK_6 - ARRAYS\STUDENT_ARRAY\STUDENT_ARRAY\DEBUG\ARRAY.OBJ
/OUT:"D:\UNIVERSITY\_REPOSITORIES\MOD3197-C++\MOD3197 - OBJECT ORIENTED C++\WEEK_6 - ARRAYS\STUDENT_ARRAY\DEBUG\STUDENT_ARRAY.EXE" /INCREMENTAL /NOLOGO KERNEL32.LIB USER32.LIB GDI32.LIB WINSPOOL.LIB COMDLG32.LIB ADVAPI32.LIB SHELL32.LIB OLE32.LIB OLEAUT32.LIB UUID.LIB ODBC32.LIB ODBCCP32.LIB /MANIFEST /MANIFESTUAC:"level='asInvoker' uiAccess='false'" /manifest:embed /Debug /PDB:"D:\UNIVERSITY\_REPOSITORIES\MOD3197-C++\MOD3197 - OBJECT ORIENTED C++\WEEK_6 - ARRAYS\STUDENT_ARRAY\DEBUG\STUDENT_ARRAY.PDB" /SUBSYSTEM:CONSOLE /TLBID:1 /DYNAMICBASE /NXCOMPAT /IMPLIB:"D:\UNIVERSITY\_REPOSITORIES\MOD3197-C++\MOD3197 - OBJECT ORIENTED C++\WEEK_6 - ARRAYS\STUDENT_ARRAY\DEBUG\STUDENT_ARRAY.LIB" /MACHINE:X86 DEBUG\ARRAY.OBJ
